<?xml version="1.0" encoding="utf-8"?>
<!-- Generator: Adobe Illustrator 24.0.0, SVG Export Plug-In . SVG Version: 6.00 Build 0)  -->
<svg version="1.1" id="圖層_1" xmlns="http://www.w3.org/2000/svg" xmlns:xlink="http://www.w3.org/1999/xlink" x="0px" y="0px"
	 viewBox="0 0 500 500" style="enable-background:new 0 0 500 500;" xml:space="preserve">
<style type="text/css">
	.st0{fill-rule:evenodd;clip-rule:evenodd;}
</style>
<g>
	<path class="st0" d="M480.1,364.6l-0.2-0.3L303.5,69.7l-0.1-0.1c-5.6-9.2-13.4-16.8-22.8-22c-9.4-5.3-19.9-8-30.7-8
		c-10.7,0-21.3,2.8-30.7,8c-9.4,5.3-17.2,12.9-22.8,22l17.8,10.8l-17.9-10.7L20,364.3l-0.2,0.3c-5.5,9.5-8.3,20.2-8.4,31.1
		c0,10.9,2.8,21.6,8.2,31.1c5.4,9.5,13.2,17.4,22.6,22.9c9.4,5.5,20.1,8.5,31,8.6l353.1,0l0.2,0c10.9-0.1,21.6-3.1,31-8.6
		c9.4-5.5,17.2-13.4,22.6-22.9c5.4-9.5,8.2-20.2,8.2-31.1C488.5,384.7,485.6,374,480.1,364.6z M444.1,406.2
		c-1.8,3.2-4.4,5.8-7.5,7.6c-3.1,1.8-6.6,2.8-10.2,2.9H73.7c-3.6-0.1-7.1-1-10.2-2.9c-3.1-1.8-5.7-4.5-7.5-7.6
		c-1.8-3.2-2.7-6.7-2.7-10.4c0-3.6,0.9-7.1,2.7-10.2L232.2,91.2c1.9-3,4.5-5.6,7.6-7.3c3.1-1.8,6.6-2.7,10.2-2.7
		c3.6,0,7.1,0.9,10.2,2.7c3.1,1.7,5.7,4.3,7.6,7.3c0,0,0,0,0,0l176.3,294.3c1.8,3.1,2.7,6.6,2.7,10.2
		C446.8,399.4,445.9,403,444.1,406.2z"/>
	<path class="st0" d="M250,291.7c11.5,0,20.8-9.3,20.8-20.8v-83.3c0-11.5-9.3-20.8-20.8-20.8c-11.5,0-20.8,9.3-20.8,20.8v83.3
		C229.2,282.3,238.5,291.7,250,291.7z"/>
	<path class="st0" d="M250.2,333.3H250c-11.5,0-20.8,9.3-20.8,20.8c0,11.5,9.3,20.8,20.8,20.8h0.2c11.5,0,20.8-9.3,20.8-20.8
		C271,342.7,261.7,333.3,250.2,333.3z"/>
</g>
</svg>
