<?xml version="1.0" encoding="utf-8"?>
<!-- Generator: Adobe Illustrator 24.0.0, SVG Export Plug-In . SVG Version: 6.00 Build 0)  -->
<svg version="1.1" id="圖層_1" xmlns="http://www.w3.org/2000/svg" xmlns:xlink="http://www.w3.org/1999/xlink" x="0px" y="0px"
	 viewBox="0 0 500 500" style="enable-background:new 0 0 500 500;" xml:space="preserve">
<g>
	<path d="M119.7,265.9c-15,0-24.9,1.3-29.9,5.1c-1.2-30.5,10-59.7,32.4-87.7c21.2-29.2,48.6-49.6,82.3-61V43.5
		C142.1,60,92.3,93,54.9,141.3S0,245.6,0,311.6c0,41.9,10,76.3,32.4,102.9c20,28,46.1,41.9,79.8,41.9c28.7,0,52.4-8.9,71.1-26.7
		c17.5-17.8,27.4-40.7,27.4-68.6c0-28-10-50.8-27.4-68.6C165.8,274.8,144.6,265.9,119.7,265.9z"/>
	<path d="M473.8,292.6c-17.5-17.8-39.9-26.7-64.8-26.7c-13.7,0-23.7,1.3-29.9,5.1c-1.2-30.5,8.7-59.7,31.2-87.7
		c22.4-29.2,49.9-49.6,84.8-61V43.5C431.4,60,381.5,93,345.4,141.3c-37.4,48.3-56.1,104.2-56.1,170.3c0,41.9,10,76.3,31.2,102.9
		c20,28,47.4,41.9,81,41.9c28.7,0,52.4-8.9,71.1-26.7C490,412,500,389.2,500,361.2C500,333.2,491.3,310.4,473.8,292.6z"/>
</g>
</svg>
