<svg width="506" height="640" viewBox="-100 -80 476 694" fill="none" xmlns="http://www.w3.org/2000/svg">
<path opacity="0.6" d="M200.948 597.577C200.948 597.577 166.365 597.998 169.925 606.592C173.485 615.187 275.317 613.847 281.863 614C288.408 614.153 355.677 611.186 361.476 604.87C369.131 596.543 293.537 593.596 293.537 593.596C293.537 593.596 274.954 590.744 200.948 597.577Z" fill="url(#paint0_linear)"/>
<path d="M33.0127 444.584C33.0127 444.584 73.2023 464.701 199.512 456.356L319.698 560.827C319.698 560.827 268.83 569.612 160.854 571.182C160.758 571.201 77.9676 540.442 33.0127 444.584Z" fill="#DFE3EA" />
<path d="M113.507 430.344C113.507 430.344 276.428 389.555 379.523 288.28C379.523 288.28 562.329 292.912 633.923 254.612C633.923 254.612 569.544 462.347 406.03 546.433C406.106 546.433 232.64 522.545 113.507 430.344Z" fill="#FAFCFF" />
<path d="M38.9461 0C38.9461 0 110.618 74.0176 223.512 127.076C223.512 127.076 186.499 277.829 199.015 375.907C199.015 375.907 53.8737 329.012 -0.0186326 249.443C0.000505298 249.52 -2.23863 108.816 38.9461 0Z" fill="white"/>
<path d="M274.705 582.801L275.203 596.199C275.203 596.199 286.245 601.118 289.786 595.529L289.192 581.595L274.705 582.801Z" fill="#F9C5A2"/>
<path d="M274.935 590.151C279.784 590.547 284.661 590.406 289.479 589.729L289.805 595.931C289.805 595.931 283.91 600.64 275.069 595.185L274.935 590.151Z" fill="white"/>
<path d="M274.17 592.907C274.17 592.907 247.147 602.898 247.013 605.712C246.879 608.526 290.513 607.033 292.274 605.712C294.035 604.391 289.805 591.586 289.805 591.586C289.805 591.586 284.868 594.878 274.17 592.907Z" fill="#302A2A"/>
<path d="M253.979 562.626L257.94 575.374C257.94 575.374 269.882 577.288 271.834 570.952L267.662 557.554L253.979 562.626Z" fill="#F9C5A2"/>
<path d="M256.983 572.024C256.983 572.024 262.457 570.454 270.514 567.143L272.849 573.747C272.849 573.747 269.021 581.633 258.993 578.666L256.983 572.024Z" fill="white"/>
<path d="M258.113 576.35L255.089 585.824C255.089 585.824 239.606 596.926 241.692 599.127C242.707 600.199 252.792 598.19 262.744 591.95C271.624 586.399 277.385 581.154 277.767 580.197C278.59 578.168 271.586 569.497 271.586 569.497C271.586 569.497 268.811 574.57 258.113 576.35Z" fill="#302A2A"/>
<path d="M275.356 293.314C275.356 293.314 299.604 318.542 300.235 329.204C300.982 341.549 284.389 375.773 284.389 375.773L272.772 337.874L272.428 298.157" fill="#DFE3EA"/>
<path d="M248.793 393.574C248.793 393.574 223.512 476.09 223.665 486.178C223.818 495.748 241.08 537.36 254.285 569.555L272.275 563.354L251.721 489.7L267.586 445.982L260.907 394.704L248.793 393.574Z" fill="#406DC6"/>
<path d="M300.714 399.374C300.714 399.374 302.474 403.833 300.159 428.544C298.315 448.386 295.312 468.103 291.164 487.594L290.724 588.657L272.926 590.227L261.979 494.523L257.424 399.488L300.714 399.374Z" fill="#406DC6"/>
<path d="M245.271 239.146C245.271 239.146 239.185 241.768 238.879 245.788C238.867 248.585 239.73 251.315 241.348 253.597L245.405 248.984L245.271 239.146Z" fill="#162F33"/>
<path d="M244.487 245.577C244.487 245.577 237.119 251.128 235.645 256.832C233.72 256.888 231.801 257.087 229.904 257.425C228.316 257.846 230.804 261.713 230.804 261.713C229.808 265.018 229.676 268.524 230.421 271.896C231.626 277.791 233.674 278.786 234.784 278.863C235.894 278.939 239.473 278.691 239.473 278.691C239.473 278.691 247.454 290.52 246.822 303.574C246.822 303.574 243.913 307.402 254.056 302.215C260.553 298.775 266.65 294.628 272.237 289.85C272.237 289.85 264.582 286.27 263.721 274.728C262.974 264.029 266.419 258.114 266.419 258.114L244.487 245.577Z" fill="#F9C5A2"/>
<path d="M229.329 258.401C229.609 259.572 230.088 260.685 230.745 261.694C230.745 261.694 230.745 261.847 230.554 262.153C231.779 262.019 233.367 261.732 232.946 261.119C231.867 260.057 230.65 259.143 229.329 258.401Z" fill="#E2AE8A"/>
<path d="M245.634 276.356C244.429 273.944 242.017 275.762 238.841 276.624C236.785 277.13 234.702 277.513 232.602 277.772C233.162 278.371 233.913 278.757 234.726 278.863C235.836 278.959 239.415 278.691 239.415 278.691C239.415 278.691 247.395 290.52 246.764 303.574C246.764 303.574 250.591 294.54 250.993 294.157C251.395 293.774 252.601 290.137 254.361 285.409C250.993 282.328 246.381 277.887 245.634 276.356Z" fill="#E2AE8A"/>
<path d="M246.209 298.827C249.779 299.163 253.37 298.452 256.543 296.779C262.629 293.908 266.667 284.165 266.667 284.165C271.318 288.394 275.53 293.082 279.241 298.157C289.403 312.608 294.321 349.014 294.302 361.169C294.302 369.763 300.732 399.584 300.732 399.584C295.085 402.037 289.206 403.916 283.183 405.193C274.609 407.222 255.911 407.317 245.079 404.599C245.079 404.599 243.166 344.765 242.783 336.056C242.4 327.347 246.209 298.827 246.209 298.827Z" fill="white"/>
<path d="M247.491 238.399C247.491 238.399 245.003 235.47 243.664 237.786C242.324 240.103 248.774 257.253 253.596 261.177C253.596 261.177 258.687 256.545 261.003 258.899C261.839 259.838 262.388 260.997 262.585 262.239C262.782 263.481 262.618 264.753 262.113 265.904C261.519 267.263 258.285 269.254 258.285 269.254L265.175 281.179C265.175 281.179 265.998 276.03 267.739 274.881C269.481 273.733 281.959 270.326 282.016 261.961C282.073 253.597 277.5 240.906 268.773 239.72C255.95 238.074 253.462 230.666 249.635 232.197C245.807 233.729 247.491 238.399 247.491 238.399Z" fill="#1D373A"/>
<path d="M275.03 295.898C269.672 295.898 251.165 310.273 237.75 316.628L222.727 335.769C222.727 335.769 226.057 345.588 227.358 346.507C228.659 347.425 249.902 342.085 263.222 336.936C276.542 331.787 286.035 317.259 286.035 317.259C286.035 317.259 281.71 295.936 275.03 295.898Z" fill="white"/>
<path d="M237.751 316.628L215.359 287.591L201.657 264.144C201.657 264.144 183.877 252.334 183.533 254.114C183.188 255.894 194.709 265.196 194.709 265.196C193.599 265.688 192.611 266.418 191.814 267.334C191.017 268.251 190.431 269.331 190.097 270.498C189.408 274.097 190.518 278.327 193.485 280.203C195.532 281.485 201.236 286.443 204.566 289.39L222.747 336.171L237.751 316.628Z" fill="#F9C5A2"/>
<path d="M243.415 343.234C243.415 343.234 265.213 335.271 268.294 333.319C272.294 330.754 284.102 318.848 284.102 318.848C284.102 318.848 271.28 341.511 268.122 344.325C264.964 347.139 243.415 343.234 243.415 343.234Z" fill="#DFE3EA"/>
<path d="M31.0615 105.257C36.7681 110.157 43.6439 113.5 51.0223 114.96C62.8878 117.123 84.4562 85.8325 71.519 80.5122C58.5818 75.1918 41.8553 116.549 61.242 123.037C80.6287 129.524 100.609 110.616 89.8149 105.812C79.0211 101.009 69.3564 128.414 83.3845 133.275C97.4126 138.136 111.977 125.18 105.489 122.482C99.001 119.783 89.9488 138.136 100.647 141.371C106.857 143.338 113.575 142.95 119.517 140.28" stroke="#DFE3EA" stroke-width="4" stroke-miterlimit="10" stroke-linecap="round" />
<path d="M21.8184 192.756C21.8184 192.756 30.6218 156.509 52.1902 162.384C73.7586 168.26 64.936 216.277 55.1374 217.272C45.3388 218.267 37.4923 190.804 56.1135 190.804C74.7346 190.804 67.8641 210.401 74.7346 217.272C81.6051 224.142 86.1217 189.465 99.8435 195.206C113.565 200.947 93.241 224.372 102.044 229.884C116.226 238.745 121.546 219.167 130.751 222.726C143.401 227.683 133.813 249.653 147.325 246.61C160.472 243.644 173.467 247.491 185.237 256.313" stroke="#DFE3EA" stroke-width="4" stroke-miterlimit="10" stroke-linecap="round" />
<defs>
<linearGradient id="paint0_linear" x1="428.137" y1="594.571" x2="151.654" y2="601.302" gradientUnits="userSpaceOnUse">
<stop stop-color="#EDEDED" stop-opacity="0.4"/>
<stop offset="1" stop-color="#C4C4D0" stop-opacity="0.5"/>
</linearGradient>
</defs>
</svg>
